<svg xmlns="http://www.w3.org/2000/svg" width="130" height="130" viewBox="0 0 100 100">
  <path fill="#fff" d="M100 0h-1v1h1V0zM1 0H0v.05h1V0zm0 .11H0v1h1v-1zM.17 99H.11v1h.06v-1zm1.05 0h-1v1h1v-1zm98.78.73h-1 1zm0-1.06h-1v1h1v-1z"/>
  <path fill="#fff" stroke="#fff" stroke-miterlimit="10" d="M17.66 69.68a4.53 4.53 0 00.85 1c.34.21 10 5.25 10 5.25a1.55 1.55 0 001.63-.06c.7-.57 25.71-18.29 25.71-18.29a1.64 1.64 0 00.91-1.58c0-1.16-.23-39.53-.23-39.53s-.14-.4-.62-.2l-2.3.9s-3.68-2.17-4.88-3.01-.65-1-3-.3c-.33.09-23.63 6.45-25.35 6.87-1 .24-2.68.43-2.68 1.74z"/>
  <path fill="#e30613" d="M28.22 26.81l-10.15-3.88v46.56c0 .37.67.92 1 1.09l9.7 5a1.09 1.09 0 001.14-.08L55.7 57.22a1.24 1.24 0 00.52-1l-.15-39.4-25.54 10a3.18 3.18 0 01-2.31-.01z"/>
  <path fill="#fff" d="M25.32 54.25l-4.76-2a1.75 1.75 0 01-1.31-1.58V38.86a2 2 0 012.64-1.65l4.75 1.91A1.77 1.77 0 0128 40.75v11.9a2 2 0 01-2.68 1.6zM25.57 63.48a5.35 5.35 0 01-.39 2 3 3 0 01-.59.88 1.53 1.53 0 01-1.07.48 1.47 1.47 0 01-1-.52 3.23 3.23 0 01-.52-.92 5.08 5.08 0 01-.33-1.92 5 5 0 01.33-1.91 3.13 3.13 0 01.53-.89 1.42 1.42 0 011-.51 1.48 1.48 0 011.07.47 3.09 3.09 0 01.59.88 5.35 5.35 0 01.38 1.96zm-.82 0a4.39 4.39 0 00-.28-1.66c-.19-.51-.55-1-.95-1s-.83.43-1 1a4.41 4.41 0 00-.34 1.7 4.5 4.5 0 00.34 1.71c.21.51.64 1 1 1s.76-.49.95-1a4.39 4.39 0 00.28-1.75zM30 29.65c.21 7.16.24 14.32.18 21.48l-.05 10.73c0 3.58-.08 7.16-.13 10.74 0-3.58-.12-7.16-.12-10.74l-.05-10.73c-.05-7.13-.03-14.32.17-21.48z"/>
  <path fill="#e30613" d="M18.73 23.75a1.4 1.4 0 01-.56-1 .93.93 0 01.17-.69 1.09 1.09 0 01.56-.41c.41-.11.73-.15 1-.24l.94-.23 3.77-1 7.55-2c5-1.36 10-2.74 15.05-4.18v.18l-15 4.29-7.52 2.13-3.76 1-.95.26a2.16 2.16 0 00-.85.3.79.79 0 00-.22.55 4.71 4.71 0 00.08.85zM23.89 23.17c2-.76 4.07-1.33 6.11-2l6.12-1.95c2-.67 4.1-1.28 6.14-1.91s4.1-1.27 6.16-1.87l.06.2c-2 .67-4.08 1.31-6.13 1.95s-4.08 1.3-6.13 1.91l-6.16 1.87C28 22 26 22.66 23.89 23.17zM28.29 24.89c1.94-.79 3.94-1.4 5.9-2.12l5.92-2.06c2-.7 4-1.35 5.93-2s4-1.33 5.94-2l.07.2c-2 .71-3.94 1.39-5.92 2.07s-3.94 1.37-5.93 2l-5.94 2c-1.99.63-3.95 1.36-5.97 1.91z"/>
  <path fill="#fff" stroke="#fff" stroke-miterlimit="10" d="M32.46 76a4.64 4.64 0 00.86 1c.34.2 10 5.24 10 5.24a1.57 1.57 0 001.63 0c.71-.57 25.72-18.3 25.72-18.3a1.64 1.64 0 00.89-1.54c0-1.16-.23-39.53-.23-39.53s-.14-.4-.63-.2-2.3.91-2.3.91-3.68-2.27-4.87-3.06-.65-1-3-.3c-.34.09-23.63 6.46-25.35 6.87-1 .25-2.69.44-2.69 1.75z"/>
  <path fill="#e30613" d="M43 33.13l-10.12-3.88v46.56c0 .37.66.92 1 1.09l9.71 5a1.1 1.1 0 001.13-.09l25.8-18.23a1.26 1.26 0 00.52-1l-.15-39.39-25.54 10a3.18 3.18 0 01-2.35-.06z"/>
  <path fill="#fff" d="M40.13 60.58l-4.76-2A1.76 1.76 0 0134.05 57V45.19a2 2 0 012.65-1.66l4.75 1.92a1.76 1.76 0 011.37 1.62V59a2 2 0 01-2.69 1.58zM40.38 69.8a5.31 5.31 0 01-.39 2 2.84 2.84 0 01-.59.88 1.35 1.35 0 01-2.1 0 3 3 0 01-.52-.88 5.72 5.72 0 010-3.83 2.92 2.92 0 01.52-.97 1.49 1.49 0 011-.52 1.52 1.52 0 011.1.52 3.09 3.09 0 01.59.88 5.39 5.39 0 01.39 1.92zm-.82 0a4.6 4.6 0 00-.28-1.66c-.19-.5-.55-1-1-1s-.83.44-1 .95A4.44 4.44 0 0037 69.8a4.49 4.49 0 00.33 1.71c.22.51.65 1 1 .95s.76-.49 1-1a4.69 4.69 0 00.23-1.66zM44.82 36c.21 7.16.24 14.32.18 21.48l-.06 10.74c0 3.58-.07 7.16-.12 10.74 0-3.58-.12-7.16-.12-10.74l-.05-10.74c-.06-7.19-.04-14.35.17-21.48z"/>
  <path fill="#e30613" d="M33.54 30.08a1.44 1.44 0 01-.56-1 1 1 0 01.16-.69 1.11 1.11 0 01.57-.41c.41-.1.72-.15 1-.23l.94-.24 3.77-1 7.54-2q7.55-2 15-4.18l.06.18-15 4.3-7.52 2.12-3.77 1.05-.94.25a2.16 2.16 0 00-.85.3.8.8 0 00-.23.55 5.73 5.73 0 00.09.85zM38.7 29.5c2-.76 4.07-1.34 6.1-2l6.13-2c2-.66 4.09-1.28 6.14-1.91s4.1-1.26 6.15-1.87l.07.2q-3.06 1-6.13 2c-2 .63-4.08 1.29-6.14 1.91l-6.15 1.86c-2.06.59-4.08 1.31-6.17 1.81zM43.1 31.22c1.9-.8 3.9-1.41 5.9-2.12l5.91-2.1c2-.69 4-1.34 5.94-2s3.95-1.33 5.94-2l.07.2c-2 .7-3.94 1.38-5.92 2.06S57 26.67 55 27.32l-5.95 2c-1.98.61-3.93 1.34-5.95 1.9z"/>
  <path fill="#fff" stroke="#fff" stroke-miterlimit="10" d="M47.27 82.32a4.36 4.36 0 00.86 1c.33.2 10 5.24 10 5.24a1.56 1.56 0 001.63 0c.71-.57 25.72-18.29 25.72-18.29a1.67 1.67 0 00.89-1.55c0-1.16-.24-39.52-.24-39.52s-.13-.41-.62-.21-2.3.91-2.3.91-3.68-2.27-4.87-3.06-.66-1-3-.3C75 26.59 51.68 33 50 33.37c-1 .25-2.69.44-2.69 1.75z"/>
  <path fill="#e30613" d="M57.84 39.46l-10.15-3.88v46.56c0 .37.66.91 1 1.08l9.71 5a1.12 1.12 0 001.13-.08l25.78-18.28a1.23 1.23 0 00.52-1l-.14-39.39-25.55 10a3.15 3.15 0 01-2.3-.01z"/>
  <path fill="#fff" d="M54.94 66.9l-4.77-2a1.75 1.75 0 01-1.31-1.57V51.51a2 2 0 012.64-1.65l4.76 1.91a1.76 1.76 0 011.37 1.63v11.89a2 2 0 01-2.69 1.61zM55.18 76.13a5 5 0 01-.39 2 2.86 2.86 0 01-.58.88 1.48 1.48 0 01-1.07.47 1.5 1.5 0 01-1-.51 2.88 2.88 0 01-.52-.89 5.56 5.56 0 010-3.83 2.84 2.84 0 01.52-.88 1.47 1.47 0 011-.52 1.49 1.49 0 011.07.48 2.64 2.64 0 01.58.88 4.93 4.93 0 01.39 1.92zm-.81 0a4.4 4.4 0 00-.29-1.66c-.19-.51-.54-1-.94-1s-.83.44-1 1a4.7 4.7 0 00-.34 1.71 4.6 4.6 0 00.34 1.7c.22.52.65 1 1 1s.75-.49.94-1a4.4 4.4 0 00.29-1.75zM59.63 42.29c.21 7.16.23 14.32.18 21.48l-.06 10.74c0 3.58-.07 7.16-.12 10.74-.05-3.58-.12-7.16-.12-10.74l-.06-10.74c-.05-7.16-.03-14.32.18-21.48z"/>
  <path fill="#e30613" d="M48.34 36.4a1.43 1.43 0 01-.55-1 1 1 0 01.16-.69 1.17 1.17 0 01.56-.4c.42-.11.73-.16 1-.24l1-.24 3.77-1 7.54-2q7.55-2 15-4.18l.05.19-15 4.29-7.51 2.13-3.77 1-1 .25a2 2 0 00-.84.31.76.76 0 00-.23.55 6 6 0 00.09.85zM53.51 35.82c2-.76 4.07-1.34 6.1-2l6.13-2c2-.66 4.09-1.27 6.14-1.91S76 28.68 78 28.07l.06.2c-2 .67-4.08 1.32-6.12 2s-4.09 1.3-6.14 1.91L59.68 34c-2.06.6-4.09 1.3-6.17 1.82zM57.91 37.54c1.93-.8 3.93-1.41 5.89-2.12l5.92-2.06c2-.7 4-1.35 5.93-2s4-1.34 5.95-2l.07.2q-3 1.05-5.92 2.06c-2 .68-4 1.37-5.93 2l-5.95 2c-1.99.63-3.95 1.38-5.96 1.92z"/>
</svg>
