<svg xmlns="http://www.w3.org/2000/svg" width="130" height="130" viewBox="0 0 100 100">
  <path fill="#fff" d="M100 0h-1v1h1V0zM1 0H0v.05h1V0zm0 .11H0v1h1v-1zM.17 99H.11v1h.06v-1zm1.05 0h-1v1h1v-1zm98.78.72h-1v.06h1v-.06zm0-1h-1v1h1v-1z"/>
  <path fill="#e30613" d="M23.14 27.13L13 23.25v46.56c0 .37.66.91 1 1.08l9.71 5a1.09 1.09 0 001.13-.08l25.77-18.28a1.22 1.22 0 00.53-1L51 17.13l-25.54 10a3.18 3.18 0 01-2.32 0z"/>
  <path fill="#fff" d="M20.24 54.57l-4.76-2A1.78 1.78 0 0114.16 51V39.18a2 2 0 012.65-1.65l4.75 1.91a1.77 1.77 0 011.37 1.63V53a2 2 0 01-2.69 1.57zM20.49 63.8a5.35 5.35 0 01-.39 2 3.09 3.09 0 01-.59.88 1.48 1.48 0 01-1.07.47 1.43 1.43 0 01-1-.51 3.1 3.1 0 01-.52-.89 5.56 5.56 0 010-3.83 3 3 0 01.52-.88 1.47 1.47 0 011-.52 1.53 1.53 0 011.07.48 3 3 0 01.59.88 5.35 5.35 0 01.39 1.92zm-.82 0a4.4 4.4 0 00-.29-1.66c-.18-.51-.54-1-.94-1s-.83.44-1.05 1a4.7 4.7 0 00-.34 1.71 4.6 4.6 0 00.34 1.7c.22.52.65 1 1.05 1s.76-.48.94-1a4.4 4.4 0 00.29-1.75zM24.93 30c.21 7.16.23 14.32.18 21.48l-.06 10.74c0 3.58-.07 7.16-.12 10.74-.05-3.58-.12-7.16-.12-10.74l-.06-10.74c-.05-7.2-.03-14.36.18-21.48z"/>
  <path fill="#e30613" d="M13.65 24.07a1.4 1.4 0 01-.56-1 1 1 0 01.16-.7 1.15 1.15 0 01.57-.4c.41-.11.72-.15 1-.24l.94-.24 3.77-1 7.54-2q7.55-2 15-4.19l.06.19-15 4.29-7.51 2.13-3.77 1-1 .25a2.17 2.17 0 00-.84.31.76.76 0 00-.23.55 6 6 0 00.09.85zM18.81 23.49c2-.76 4.07-1.33 6.1-2l6.13-2c2-.66 4.09-1.27 6.14-1.91s4.1-1.26 6.15-1.87l.07.21c-2 .67-4.08 1.31-6.13 1.95s-4.08 1.3-6.14 1.91L25 21.68c-2.08.6-4.11 1.32-6.19 1.81zM23.21 25.21c1.93-.8 3.93-1.41 5.9-2.12L35 21c2-.7 4-1.35 5.93-2s4-1.34 5.95-2l.07.2c-2 .71-3.94 1.39-5.92 2.06s-3.94 1.37-5.93 2l-5.95 2c-1.97.66-3.92 1.4-5.94 1.95z"/>
  <path fill="#fff" stroke="#e30613" stroke-miterlimit="10" d="M40.4 72.92c.14.15 21.27 12.73 25.1 12.73.75 0 25.66-23.75 23.36-24.25s-19.67-9.33-19.67-9.33S39.05 71.43 40.4 72.92z"/>
  <path fill="#e30613" d="M60.82 65.27c1-.85 2.12-1.87 3-2.61-1 .61-2.11 1.28-3.36 2l-4.37 2.53-.5-.2 2.57-3.17c.78-.94 1.49-1.78 2.19-2.54-.91.74-2.13 1.71-3.26 2.59l-3.2 2.5-.62-.25 7.49-5.81.84.33-2.6 3.22c-.67.82-1.28 1.54-1.89 2.21.89-.54 1.89-1.07 2.97-1.78l4.36-2.52.84.34-6.82 6.08-.65-.26zM69.38 63.39l-.65.54c1 .48 1.18 1.66-1.06 3.53s-4.18 2.16-5.36 1.81l-.66.54-.65-.25.66-.55c-1-.51-1.25-1.6 1-3.49s4.36-2.18 5.41-1.85l.65-.54zm-1.95.83c-.72-.22-2.17 0-4 1.55-1.7 1.41-1.7 2.3-1.06 2.69zM63 68.71c.81.23 2.25-.06 4-1.52s1.74-2.37 1.08-2.72zM68.74 72a3.7 3.7 0 01-1.69-.25c-1.44-.58-1.24-2.07 1.11-4S73 65 74.58 65.67c.63.25.85.57.9.75l-.92.56a1.18 1.18 0 00-.73-.66c-1.2-.47-3.07.1-4.94 1.66s-2.15 2.69-.91 3.18a3 3 0 001.38.18zM77.22 71.17c-2.45 2-4.83 2.71-6.14 2.19s-.82-2.14 1.34-3.94 4.75-2.73 6.12-2.19.8 2.17-1.32 3.94zm-4.08-1.49c-1.54 1.28-2.31 2.65-1.27 3.07s3-.47 4.61-1.82c1.43-1.19 2.38-2.64 1.28-3.08s-3.07.53-4.62 1.83z"/>
</svg>
